{
    "alias": "sqtract.phar",
    "chmod": "0755",
    "directories": ["config", "src", "vendor"],
    "git-version": "package_version",
    "main": "index.php",
    "output": "sqtract.phar",
    "stub": true
}